…
## Datasets

#### Retrieve records on a dataset

``` r
dts <- list_datasets[[1]]
dts$get_records()
#> # A tibble: 896 x 14
#>    shape_area objectid nbr_elect_l12 arrondissement validite shape_len
#>         <dbl>    <int>         <int>          <int> <chr>        <dbl>
#>  1          0        4             0             19 oui              0
#>  2          0        5             0             19 oui              0
#>  3          0        9             0             19 oui              0
#>  4          0       10             0             19 oui              0
#>  5          0       12             0             19 oui              0
#>  6          0       17             0             19 oui              0
#>  7          0       19             0             19 oui              0
#>  8          0       21             0             19 oui              0
#>  9          0       22             0             19 non              0
#> 10          0       29             0             19 non              0
#> # ... with 886 more rows, and 8 more variables: nbr_elect_f <int>,
#> #   nbr_elect_e_m <int>, nbr_elect_e_e <int>, num_bv <int>, id_bv <chr>,
#> #   lng <dbl>, lat <dbl>, geo_shape <list>
```

#### Filter records

``` r
dts <- list_datasets[[1]]
dts$get_records(nrows = dts$info$metas$records_count, refine = list(validite = "oui"))
#> # A tibble: 54 x 14
#>    shape_area objectid nbr_elect_l12 arrondissement validite shape_len
#>         <dbl>    <int>         <int>          <int> <chr>        <dbl>
#>  1          0        4             0             19 oui              0
#>  2          0        5             0             19 oui              0
#>  3          0        9             0             19 oui              0
#>  4          0       10             0             19 oui              0
#>  5          0       12             0             19 oui              0
#>  6          0       17             0             19 oui              0
#>  7          0       19             0             19 oui              0
#>  8          0       21             0             19 oui              0
#>  9          0       33             0             19 oui              0
#> 10          0       45             0             19 oui              0
#> # ... with 44 more rows, and 8 more variables: nbr_elect_f <int>,
#> #   nbr_elect_e_m <int>, nbr_elect_e_e <int>, num_bv <int>, id_bv <chr>,
#> #   lng <dbl>, lat <dbl>, geo_shape <list>
```
…
